# Each line contains three values: hv_raw, hv_norm_1.1, and hv_norm (hv_norm is recommended for showing results). Each line is the hv value of an independent run.
1.142502468972782559e+01 1.143792526310672297e+00 1.576467418557841782e+00
1.146187042830233871e+01 1.147481260606871833e+00 1.581551530667257621e+00
1.138883257541932004e+01 1.140169228245096145e+00 1.571473495956748456e+00
1.162571161598364355e+01 1.163883879512389807e+00 1.604158947387295475e+00
1.172565332414576922e+01 1.173889335252484623e+00 1.617949276156935845e+00
1.151951139579206895e+01 1.153251865889094674e+00 1.589505045840262865e+00
1.160329173595749452e+01 1.161639359967697072e+00 1.601065368918184628e+00
1.153883399200760707e+01 1.155186307322741746e+00 1.592171249564368063e+00
1.148798325929496400e+01 1.150095492237988681e+00 1.585154676251983918e+00
1.162106339514007480e+01 1.163418532573901709e+00 1.603517568579533537e+00
1.176419002423533655e+01 1.177747356635209020e+00 1.623266713428170860e+00
1.139626038479714154e+01 1.140912847894413051e+00 1.572498412733158046e+00
1.178775809040470968e+01 1.180106824441730318e+00 1.626518722893659064e+00
1.152316742320422449e+01 1.153617881450861526e+00 1.590009518106462849e+00
1.156175228907086350e+01 1.157480724849934361e+00 1.595333601470840357e+00
1.152682453707656585e+01 1.153984005781324651e+00 1.590514140286481970e+00
1.155468497776896797e+01 1.156773195713871605e+00 1.594358427560339964e+00
1.146273839323034949e+01 1.147568155105983978e+00 1.581671295697672841e+00
1.129946055915964642e+01 1.131221935172632254e+00 1.559141612605032590e+00
1.178822445510295047e+01 1.180153513571151835e+00 1.626583073630039067e+00
1.159579907962193346e+01 1.160889248300408294e+00 1.600031504317254605e+00
1.166236891730441627e+01 1.167553748805811642e+00 1.609217058223275654e+00
1.172976686866610407e+01 1.174301154185640739e+00 1.618516878336117681e+00
1.154154495976113637e+01 1.155457710207178801e+00 1.592545318982357294e+00
1.130352156598101132e+01 1.131628494403593921e+00 1.559701965437020776e+00
1.145186012867461400e+01 1.146479100330525469e+00 1.580170272276866683e+00
1.149696068761210199e+01 1.150994248756551430e+00 1.586393415215684444e+00
1.156659665337887688e+01 1.157965708282417960e+00 1.596002044883664928e+00
1.127408030251207727e+01 1.128681043694696351e+00 1.555639550354304790e+00
1.170655089777482871e+01 1.171976935663788133e+00 1.615313452287227891e+00
1.159513581618365130e+01 1.160822847064149732e+00 1.599939984760074596e+00
1.139744824846324533e+01 1.141031768388719447e+00 1.572662318581780294e+00
1.124440540306702552e+01 1.125710203007167065e+00 1.551544897310258131e+00
1.167241988881513848e+01 1.168559980862925896e+00 1.610603928671420437e+00
1.152407475167468931e+01 1.153708716748955698e+00 1.590134714664935389e+00
1.160616141089473174e+01 1.161926651490935880e+00 1.601461337343922375e+00
1.171423019986877812e+01 1.172745732982032774e+00 1.616373070964398861e+00
1.179947234920945220e+01 1.181279573038429564e+00 1.628135099911630412e+00
1.176778766681084498e+01 1.178107527120783704e+00 1.623763129537363570e+00
1.141945749406241184e+01 1.143235178123903406e+00 1.575699236184708418e+00
1.131800140591410120e+01 1.133078113388884534e+00 1.561699947629652030e+00
1.177814998245138334e+01 1.179144928746320486e+00 1.625192960407034093e+00
1.168934841121259538e+01 1.170254744587778228e+00 1.612939789181893735e+00
1.190485483455310245e+01 1.191829720842353835e+00 1.642676167361601269e+00
1.172473630716084791e+01 1.173797530008965362e+00 1.617822742741188202e+00
1.173564427536749832e+01 1.174889558503505071e+00 1.619327864782273307e+00
1.162142258491990710e+01 1.163454492109820215e+00 1.603567130921879524e+00
1.154886831079474163e+01 1.156190872227153887e+00 1.593555822207748163e+00
1.140009905382480149e+01 1.141297148240719039e+00 1.573028086569064232e+00
1.151858559487602029e+01 1.153159181260624555e+00 1.589377300385013791e+00
