# Each line contains three values: hv_raw, hv_norm_1.1, and hv_norm (hv_norm is recommended for showing results). Each line is the hv value of an independent run.
6.990991449044228201e-01 5.498604107903297677e-01 1.012491314850939794e+00
7.016473864832349916e-01 5.518646718047102162e-01 1.016181882183906815e+00
7.071846794970768624e-01 5.562199027236005566e-01 1.024201432951725499e+00
7.030862677783452641e-01 5.529963909117562304e-01 1.018265785196833306e+00
7.012473345228905641e-01 5.515500201035090644e-01 1.015602494927764221e+00
6.978402757191867201e-01 5.488702760828702010e-01 1.010668119777858642e+00
7.029077716996079417e-01 5.528559989117168838e-01 1.018007272894574378e+00
7.008924400167443336e-01 5.512708859630096603e-01 1.015088508309728077e+00
6.964202980400830967e-01 5.477534251817697264e-01 1.008611594494064789e+00
7.059078443934730940e-01 5.552156373347835183e-01 1.022352218198255391e+00
7.002033205861247778e-01 5.507288748677795498e-01 1.014090470415556888e+00
7.007753841549587692e-01 5.511788183575548894e-01 1.014918978645338976e+00
7.013924869150947039e-01 5.516641863910611843e-01 1.015812716235439561e+00
7.036992998643059050e-01 5.534785572497797901e-01 1.019153627310908528e+00
7.015045938839371553e-01 5.517523615581879648e-01 1.015975078517119545e+00
7.055533302887736502e-01 5.549368023903241687e-01 1.021838782508029508e+00
6.934460081609089555e-01 5.454140656407194809e-01 1.004303989925438678e+00
7.013047083409411631e-01 5.515951461652298660e-01 1.015685588281402874e+00
7.031902287414082409e-01 5.530781590247236812e-01 1.018416349781201546e+00
6.983643774573404794e-01 5.492824962938912536e-01 1.011427165847141874e+00
7.017335940013148532e-01 5.519324763523915101e-01 1.016306734808841261e+00
6.988567969983499051e-01 5.496697975988265039e-01 1.012140327223706171e+00
6.979076285273182467e-01 5.489232508905451668e-01 1.010765665503327027e+00
7.065313307215949079e-01 5.557060262173934007e-01 1.023255200982246649e+00
6.994190337479954112e-01 5.501120120291757010e-01 1.012954603467720149e+00
7.008784861867217719e-01 5.512599108977928042e-01 1.015068299256677742e+00
6.993377942648104639e-01 5.500481149754858912e-01 1.012836945948400791e+00
6.994992798953911795e-01 5.501751277973653265e-01 1.013070822358675072e+00
7.017845116287352303e-01 5.519725244453320689e-01 1.016380477790665315e+00
7.008832059894016808e-01 5.512636231504244311e-01 1.015075134852538641e+00
6.983778206208227646e-01 5.492930697060439682e-01 1.011446635312051257e+00
7.014386705826040069e-01 5.517005110963244530e-01 1.015879603117767926e+00
6.999740377656668011e-01 5.505485377199470509e-01 1.013758404690616066e+00
7.056380294169042333e-01 5.550034205484594141e-01 1.021961450561956752e+00
6.938930607819606688e-01 5.457656846344604018e-01 1.004951447298824796e+00
7.009140554332398132e-01 5.512878870734818637e-01 1.015119813485293010e+00
6.992921671589374943e-01 5.500122280210225645e-01 1.012770865123163055e+00
7.004294942130451229e-01 5.509067665506900413e-01 1.014418033157657550e+00
6.977350358664864416e-01 5.487875020885675248e-01 1.010515703003196819e+00
7.025339279288186356e-01 5.525619606613829671e-01 1.017465842435398171e+00
6.992625446770927011e-01 5.499889291368020849e-01 1.012727963474933768e+00
7.028896913785664946e-01 5.528417782495581578e-01 1.017981087527080275e+00
7.019028936784531547e-01 5.520656351335121448e-01 1.016551928146522954e+00
7.030261545198481787e-01 5.529491102059335139e-01 1.018178724366364030e+00
6.970093551927369901e-01 5.482167345854473961e-01 1.009464714191549817e+00
7.012636532601830286e-01 5.515628552323410538e-01 1.015626129028733171e+00
7.000122367812691149e-01 5.505785822802414797e-01 1.013813727561220457e+00
6.986770035553565572e-01 5.495283851866639147e-01 1.011879935974732803e+00
6.978173336739484922e-01 5.488522315429633647e-01 1.010634893272408075e+00
7.006073690194402070e-01 5.510466699032067206e-01 1.014675645683603911e+00
