#
1.000000000000000000e+00 1.000000000000000000e+00 1.000000000000000000e+00 1.000000000000000000e+00 1.000000000000000000e+00 1.000000000000000000e+00 1.000000000000000000e+00 0.000000000000000000e+00
1.000000000000000000e+00 1.000000000000000000e+00 1.000000000000000000e+00 1.000000000000000000e+00 1.000000000000000000e+00 1.000000000000000000e+00 5.527864045000421278e-01 1.055728090000841446e-01
1.000000000000000000e+00 1.000000000000000000e+00 1.000000000000000000e+00 1.000000000000000000e+00 1.000000000000000000e+00 1.000000000000000000e+00 1.055728090000841446e-01 5.527864045000421278e-01
1.000000000000000000e+00 1.000000000000000000e+00 1.000000000000000000e+00 1.000000000000000000e+00 1.000000000000000000e+00 1.000000000000000000e+00 0.000000000000000000e+00 1.000000000000000000e+00
1.000000000000000000e+00 1.000000000000000000e+00 1.000000000000000000e+00 1.000000000000000000e+00 1.000000000000000000e+00 5.527864045000421278e-01 1.000000000000000000e+00 1.055728090000841446e-01
1.000000000000000000e+00 1.000000000000000000e+00 1.000000000000000000e+00 1.000000000000000000e+00 1.000000000000000000e+00 4.226497308103742689e-01 4.226497308103742689e-01 4.226497308103742689e-01
1.000000000000000000e+00 1.000000000000000000e+00 1.000000000000000000e+00 1.000000000000000000e+00 1.000000000000000000e+00 5.527864045000421278e-01 1.055728090000841446e-01 1.000000000000000000e+00
1.000000000000000000e+00 1.000000000000000000e+00 1.000000000000000000e+00 1.000000000000000000e+00 1.000000000000000000e+00 1.055728090000841446e-01 1.000000000000000000e+00 5.527864045000421278e-01
1.000000000000000000e+00 1.000000000000000000e+00 1.000000000000000000e+00 1.000000000000000000e+00 1.000000000000000000e+00 1.055728090000841446e-01 5.527864045000421278e-01 1.000000000000000000e+00
1.000000000000000000e+00 1.000000000000000000e+00 1.000000000000000000e+00 1.000000000000000000e+00 1.000000000000000000e+00 0.000000000000000000e+00 1.000000000000000000e+00 1.000000000000000000e+00
1.000000000000000000e+00 1.000000000000000000e+00 1.000000000000000000e+00 1.000000000000000000e+00 5.527864045000421278e-01 1.000000000000000000e+00 1.000000000000000000e+00 1.055728090000841446e-01
1.000000000000000000e+00 1.000000000000000000e+00 1.000000000000000000e+00 1.000000000000000000e+00 4.226497308103742689e-01 1.000000000000000000e+00 4.226497308103742689e-01 4.226497308103742689e-01
1.000000000000000000e+00 1.000000000000000000e+00 1.000000000000000000e+00 1.000000000000000000e+00 5.527864045000421278e-01 1.000000000000000000e+00 1.055728090000841446e-01 1.000000000000000000e+00
1.000000000000000000e+00 1.000000000000000000e+00 1.000000000000000000e+00 1.000000000000000000e+00 4.226497308103742689e-01 4.226497308103742689e-01 1.000000000000000000e+00 4.226497308103742689e-01
1.000000000000000000e+00 1.000000000000000000e+00 1.000000000000000000e+00 1.000000000000000000e+00 4.226497308103742689e-01 4.226497308103742689e-01 4.226497308103742689e-01 1.000000000000000000e+00
1.000000000000000000e+00 1.000000000000000000e+00 1.000000000000000000e+00 1.000000000000000000e+00 5.527864045000421278e-01 1.055728090000841446e-01 1.000000000000000000e+00 1.000000000000000000e+00
1.000000000000000000e+00 1.000000000000000000e+00 1.000000000000000000e+00 1.000000000000000000e+00 1.055728090000841446e-01 1.000000000000000000e+00 1.000000000000000000e+00 5.527864045000421278e-01
1.000000000000000000e+00 1.000000000000000000e+00 1.000000000000000000e+00 1.000000000000000000e+00 1.055728090000841446e-01 1.000000000000000000e+00 5.527864045000421278e-01 1.000000000000000000e+00
1.000000000000000000e+00 1.000000000000000000e+00 1.000000000000000000e+00 1.000000000000000000e+00 1.055728090000841446e-01 5.527864045000421278e-01 1.000000000000000000e+00 1.000000000000000000e+00
1.000000000000000000e+00 1.000000000000000000e+00 1.000000000000000000e+00 1.000000000000000000e+00 0.000000000000000000e+00 1.000000000000000000e+00 1.000000000000000000e+00 1.000000000000000000e+00
1.000000000000000000e+00 1.000000000000000000e+00 1.000000000000000000e+00 5.527864045000421278e-01 1.000000000000000000e+00 1.000000000000000000e+00 1.000000000000000000e+00 1.055728090000841446e-01
1.000000000000000000e+00 1.000000000000000000e+00 1.000000000000000000e+00 4.226497308103742689e-01 1.000000000000000000e+00 1.000000000000000000e+00 4.226497308103742689e-01 4.226497308103742689e-01
1.000000000000000000e+00 1.000000000000000000e+00 1.000000000000000000e+00 5.527864045000421278e-01 1.000000000000000000e+00 1.000000000000000000e+00 1.055728090000841446e-01 1.000000000000000000e+00
1.000000000000000000e+00 1.000000000000000000e+00 1.000000000000000000e+00 4.226497308103742689e-01 1.000000000000000000e+00 4.226497308103742689e-01 1.000000000000000000e+00 4.226497308103742689e-01
1.000000000000000000e+00 1.000000000000000000e+00 1.000000000000000000e+00 4.226497308103742689e-01 1.000000000000000000e+00 4.226497308103742689e-01 4.226497308103742689e-01 1.000000000000000000e+00
1.000000000000000000e+00 1.000000000000000000e+00 1.000000000000000000e+00 5.527864045000421278e-01 1.000000000000000000e+00 1.055728090000841446e-01 1.000000000000000000e+00 1.000000000000000000e+00
1.000000000000000000e+00 1.000000000000000000e+00 1.000000000000000000e+00 4.226497308103742689e-01 4.226497308103742689e-01 1.000000000000000000e+00 1.000000000000000000e+00 4.226497308103742689e-01
1.000000000000000000e+00 1.000000000000000000e+00 1.000000000000000000e+00 4.226497308103742689e-01 4.226497308103742689e-01 1.000000000000000000e+00 4.226497308103742689e-01 1.000000000000000000e+00
1.000000000000000000e+00 1.000000000000000000e+00 1.000000000000000000e+00 4.226497308103742689e-01 4.226497308103742689e-01 4.226497308103742689e-01 1.000000000000000000e+00 1.000000000000000000e+00
1.000000000000000000e+00 1.000000000000000000e+00 1.000000000000000000e+00 5.527864045000421278e-01 1.055728090000841446e-01 1.000000000000000000e+00 1.000000000000000000e+00 1.000000000000000000e+00
1.000000000000000000e+00 1.000000000000000000e+00 1.000000000000000000e+00 1.055728090000841446e-01 1.000000000000000000e+00 1.000000000000000000e+00 1.000000000000000000e+00 5.527864045000421278e-01
1.000000000000000000e+00 1.000000000000000000e+00 1.000000000000000000e+00 1.055728090000841446e-01 1.000000000000000000e+00 1.000000000000000000e+00 5.527864045000421278e-01 1.000000000000000000e+00
1.000000000000000000e+00 1.000000000000000000e+00 1.000000000000000000e+00 1.055728090000841446e-01 1.000000000000000000e+00 5.527864045000421278e-01 1.000000000000000000e+00 1.000000000000000000e+00
1.000000000000000000e+00 1.000000000000000000e+00 1.000000000000000000e+00 1.055728090000841446e-01 5.527864045000421278e-01 1.000000000000000000e+00 1.000000000000000000e+00 1.000000000000000000e+00
1.000000000000000000e+00 1.000000000000000000e+00 1.000000000000000000e+00 0.000000000000000000e+00 1.000000000000000000e+00 1.000000000000000000e+00 1.000000000000000000e+00 1.000000000000000000e+00
1.000000000000000000e+00 1.000000000000000000e+00 5.527864045000421278e-01 1.000000000000000000e+00 1.000000000000000000e+00 1.000000000000000000e+00 1.000000000000000000e+00 1.055728090000841446e-01
1.000000000000000000e+00 1.000000000000000000e+00 4.226497308103742689e-01 1.000000000000000000e+00 1.000000000000000000e+00 1.000000000000000000e+00 4.226497308103742689e-01 4.226497308103742689e-01
1.000000000000000000e+00 1.000000000000000000e+00 5.527864045000421278e-01 1.000000000000000000e+00 1.000000000000000000e+00 1.000000000000000000e+00 1.055728090000841446e-01 1.000000000000000000e+00
1.000000000000000000e+00 1.000000000000000000e+00 4.226497308103742689e-01 1.000000000000000000e+00 1.000000000000000000e+00 4.226497308103742689e-01 1.000000000000000000e+00 4.226497308103742689e-01
1.000000000000000000e+00 1.000000000000000000e+00 4.226497308103742689e-01 1.000000000000000000e+00 1.000000000000000000e+00 4.226497308103742689e-01 4.226497308103742689e-01 1.000000000000000000e+00
1.000000000000000000e+00 1.000000000000000000e+00 5.527864045000421278e-01 1.000000000000000000e+00 1.000000000000000000e+00 1.055728090000841446e-01 1.000000000000000000e+00 1.000000000000000000e+00
1.000000000000000000e+00 1.000000000000000000e+00 4.226497308103742689e-01 1.000000000000000000e+00 4.226497308103742689e-01 1.000000000000000000e+00 1.000000000000000000e+00 4.226497308103742689e-01
1.000000000000000000e+00 1.000000000000000000e+00 4.226497308103742689e-01 1.000000000000000000e+00 4.226497308103742689e-01 1.000000000000000000e+00 4.226497308103742689e-01 1.000000000000000000e+00
1.000000000000000000e+00 1.000000000000000000e+00 4.226497308103742689e-01 1.000000000000000000e+00 4.226497308103742689e-01 4.226497308103742689e-01 1.000000000000000000e+00 1.000000000000000000e+00
1.000000000000000000e+00 1.000000000000000000e+00 5.527864045000421278e-01 1.000000000000000000e+00 1.055728090000841446e-01 1.000000000000000000e+00 1.000000000000000000e+00 1.000000000000000000e+00
1.000000000000000000e+00 1.000000000000000000e+00 4.226497308103742689e-01 4.226497308103742689e-01 1.000000000000000000e+00 1.000000000000000000e+00 1.000000000000000000e+00 4.226497308103742689e-01
1.000000000000000000e+00 1.000000000000000000e+00 4.226497308103742689e-01 4.226497308103742689e-01 1.000000000000000000e+00 1.000000000000000000e+00 4.226497308103742689e-01 1.000000000000000000e+00
1.000000000000000000e+00 1.000000000000000000e+00 4.226497308103742689e-01 4.226497308103742689e-01 1.000000000000000000e+00 4.226497308103742689e-01 1.000000000000000000e+00 1.000000000000000000e+00
1.000000000000000000e+00 1.000000000000000000e+00 4.226497308103742689e-01 4.226497308103742689e-01 4.226497308103742689e-01 1.000000000000000000e+00 1.000000000000000000e+00 1.000000000000000000e+00
1.000000000000000000e+00 1.000000000000000000e+00 5.527864045000421278e-01 1.055728090000841446e-01 1.000000000000000000e+00 1.000000000000000000e+00 1.000000000000000000e+00 1.000000000000000000e+00
1.000000000000000000e+00 1.000000000000000000e+00 1.055728090000841446e-01 1.000000000000000000e+00 1.000000000000000000e+00 1.000000000000000000e+00 1.000000000000000000e+00 5.527864045000421278e-01
1.000000000000000000e+00 1.000000000000000000e+00 1.055728090000841446e-01 1.000000000000000000e+00 1.000000000000000000e+00 1.000000000000000000e+00 5.527864045000421278e-01 1.000000000000000000e+00
1.000000000000000000e+00 1.000000000000000000e+00 1.055728090000841446e-01 1.000000000000000000e+00 1.000000000000000000e+00 5.527864045000421278e-01 1.000000000000000000e+00 1.000000000000000000e+00
1.000000000000000000e+00 1.000000000000000000e+00 1.055728090000841446e-01 1.000000000000000000e+00 5.527864045000421278e-01 1.000000000000000000e+00 1.000000000000000000e+00 1.000000000000000000e+00
1.000000000000000000e+00 1.000000000000000000e+00 1.055728090000841446e-01 5.527864045000421278e-01 1.000000000000000000e+00 1.000000000000000000e+00 1.000000000000000000e+00 1.000000000000000000e+00
1.000000000000000000e+00 1.000000000000000000e+00 0.000000000000000000e+00 1.000000000000000000e+00 1.000000000000000000e+00 1.000000000000000000e+00 1.000000000000000000e+00 1.000000000000000000e+00
1.000000000000000000e+00 5.527864045000421278e-01 1.000000000000000000e+00 1.000000000000000000e+00 1.000000000000000000e+00 1.000000000000000000e+00 1.000000000000000000e+00 1.055728090000841446e-01
1.000000000000000000e+00 4.226497308103742689e-01 1.000000000000000000e+00 1.000000000000000000e+00 1.000000000000000000e+00 1.000000000000000000e+00 4.226497308103742689e-01 4.226497308103742689e-01
1.000000000000000000e+00 5.527864045000421278e-01 1.000000000000000000e+00 1.000000000000000000e+00 1.000000000000000000e+00 1.000000000000000000e+00 1.055728090000841446e-01 1.000000000000000000e+00
1.000000000000000000e+00 4.226497308103742689e-01 1.000000000000000000e+00 1.000000000000000000e+00 1.000000000000000000e+00 4.226497308103742689e-01 1.000000000000000000e+00 4.226497308103742689e-01
1.000000000000000000e+00 4.226497308103742689e-01 1.000000000000000000e+00 1.000000000000000000e+00 1.000000000000000000e+00 4.226497308103742689e-01 4.226497308103742689e-01 1.000000000000000000e+00
1.000000000000000000e+00 5.527864045000421278e-01 1.000000000000000000e+00 1.000000000000000000e+00 1.000000000000000000e+00 1.055728090000841446e-01 1.000000000000000000e+00 1.000000000000000000e+00
1.000000000000000000e+00 4.226497308103742689e-01 1.000000000000000000e+00 1.000000000000000000e+00 4.226497308103742689e-01 1.000000000000000000e+00 1.000000000000000000e+00 4.226497308103742689e-01
1.000000000000000000e+00 4.226497308103742689e-01 1.000000000000000000e+00 1.000000000000000000e+00 4.226497308103742689e-01 1.000000000000000000e+00 4.226497308103742689e-01 1.000000000000000000e+00
1.000000000000000000e+00 4.226497308103742689e-01 1.000000000000000000e+00 1.000000000000000000e+00 4.226497308103742689e-01 4.226497308103742689e-01 1.000000000000000000e+00 1.000000000000000000e+00
1.000000000000000000e+00 5.527864045000421278e-01 1.000000000000000000e+00 1.000000000000000000e+00 1.055728090000841446e-01 1.000000000000000000e+00 1.000000000000000000e+00 1.000000000000000000e+00
1.000000000000000000e+00 4.226497308103742689e-01 1.000000000000000000e+00 4.226497308103742689e-01 1.000000000000000000e+00 1.000000000000000000e+00 1.000000000000000000e+00 4.226497308103742689e-01
1.000000000000000000e+00 4.226497308103742689e-01 1.000000000000000000e+00 4.226497308103742689e-01 1.000000000000000000e+00 1.000000000000000000e+00 4.226497308103742689e-01 1.000000000000000000e+00
1.000000000000000000e+00 4.226497308103742689e-01 1.000000000000000000e+00 4.226497308103742689e-01 1.000000000000000000e+00 4.226497308103742689e-01 1.000000000000000000e+00 1.000000000000000000e+00
1.000000000000000000e+00 4.226497308103742689e-01 1.000000000000000000e+00 4.226497308103742689e-01 4.226497308103742689e-01 1.000000000000000000e+00 1.000000000000000000e+00 1.000000000000000000e+00
1.000000000000000000e+00 5.527864045000421278e-01 1.000000000000000000e+00 1.055728090000841446e-01 1.000000000000000000e+00 1.000000000000000000e+00 1.000000000000000000e+00 1.000000000000000000e+00
1.000000000000000000e+00 4.226497308103742689e-01 4.226497308103742689e-01 1.000000000000000000e+00 1.000000000000000000e+00 1.000000000000000000e+00 1.000000000000000000e+00 4.226497308103742689e-01
1.000000000000000000e+00 4.226497308103742689e-01 4.226497308103742689e-01 1.000000000000000000e+00 1.000000000000000000e+00 1.000000000000000000e+00 4.226497308103742689e-01 1.000000000000000000e+00
1.000000000000000000e+00 4.226497308103742689e-01 4.226497308103742689e-01 1.000000000000000000e+00 1.000000000000000000e+00 4.226497308103742689e-01 1.000000000000000000e+00 1.000000000000000000e+00
1.000000000000000000e+00 4.226497308103742689e-01 4.226497308103742689e-01 1.000000000000000000e+00 4.226497308103742689e-01 1.000000000000000000e+00 1.000000000000000000e+00 1.000000000000000000e+00
1.000000000000000000e+00 4.226497308103742689e-01 4.226497308103742689e-01 4.226497308103742689e-01 1.000000000000000000e+00 1.000000000000000000e+00 1.000000000000000000e+00 1.000000000000000000e+00
1.000000000000000000e+00 5.527864045000421278e-01 1.055728090000841446e-01 1.000000000000000000e+00 1.000000000000000000e+00 1.000000000000000000e+00 1.000000000000000000e+00 1.000000000000000000e+00
1.000000000000000000e+00 1.055728090000841446e-01 1.000000000000000000e+00 1.000000000000000000e+00 1.000000000000000000e+00 1.000000000000000000e+00 1.000000000000000000e+00 5.527864045000421278e-01
1.000000000000000000e+00 1.055728090000841446e-01 1.000000000000000000e+00 1.000000000000000000e+00 1.000000000000000000e+00 1.000000000000000000e+00 5.527864045000421278e-01 1.000000000000000000e+00
1.000000000000000000e+00 1.055728090000841446e-01 1.000000000000000000e+00 1.000000000000000000e+00 1.000000000000000000e+00 5.527864045000421278e-01 1.000000000000000000e+00 1.000000000000000000e+00
1.000000000000000000e+00 1.055728090000841446e-01 1.000000000000000000e+00 1.000000000000000000e+00 5.527864045000421278e-01 1.000000000000000000e+00 1.000000000000000000e+00 1.000000000000000000e+00
1.000000000000000000e+00 1.055728090000841446e-01 1.000000000000000000e+00 5.527864045000421278e-01 1.000000000000000000e+00 1.000000000000000000e+00 1.000000000000000000e+00 1.000000000000000000e+00
1.000000000000000000e+00 1.055728090000841446e-01 5.527864045000421278e-01 1.000000000000000000e+00 1.000000000000000000e+00 1.000000000000000000e+00 1.000000000000000000e+00 1.000000000000000000e+00
1.000000000000000000e+00 0.000000000000000000e+00 1.000000000000000000e+00 1.000000000000000000e+00 1.000000000000000000e+00 1.000000000000000000e+00 1.000000000000000000e+00 1.000000000000000000e+00
5.527864045000421278e-01 1.000000000000000000e+00 1.000000000000000000e+00 1.000000000000000000e+00 1.000000000000000000e+00 1.000000000000000000e+00 1.000000000000000000e+00 1.055728090000841446e-01
4.226497308103742689e-01 1.000000000000000000e+00 1.000000000000000000e+00 1.000000000000000000e+00 1.000000000000000000e+00 1.000000000000000000e+00 4.226497308103742689e-01 4.226497308103742689e-01
5.527864045000421278e-01 1.000000000000000000e+00 1.000000000000000000e+00 1.000000000000000000e+00 1.000000000000000000e+00 1.000000000000000000e+00 1.055728090000841446e-01 1.000000000000000000e+00
4.226497308103742689e-01 1.000000000000000000e+00 1.000000000000000000e+00 1.000000000000000000e+00 1.000000000000000000e+00 4.226497308103742689e-01 1.000000000000000000e+00 4.226497308103742689e-01
4.226497308103742689e-01 1.000000000000000000e+00 1.000000000000000000e+00 1.000000000000000000e+00 1.000000000000000000e+00 4.226497308103742689e-01 4.226497308103742689e-01 1.000000000000000000e+00
5.527864045000421278e-01 1.000000000000000000e+00 1.000000000000000000e+00 1.000000000000000000e+00 1.000000000000000000e+00 1.055728090000841446e-01 1.000000000000000000e+00 1.000000000000000000e+00
4.226497308103742689e-01 1.000000000000000000e+00 1.000000000000000000e+00 1.000000000000000000e+00 4.226497308103742689e-01 1.000000000000000000e+00 1.000000000000000000e+00 4.226497308103742689e-01
4.226497308103742689e-01 1.000000000000000000e+00 1.000000000000000000e+00 1.000000000000000000e+00 4.226497308103742689e-01 1.000000000000000000e+00 4.226497308103742689e-01 1.000000000000000000e+00
4.226497308103742689e-01 1.000000000000000000e+00 1.000000000000000000e+00 1.000000000000000000e+00 4.226497308103742689e-01 4.226497308103742689e-01 1.000000000000000000e+00 1.000000000000000000e+00
5.527864045000421278e-01 1.000000000000000000e+00 1.000000000000000000e+00 1.000000000000000000e+00 1.055728090000841446e-01 1.000000000000000000e+00 1.000000000000000000e+00 1.000000000000000000e+00
4.226497308103742689e-01 1.000000000000000000e+00 1.000000000000000000e+00 4.226497308103742689e-01 1.000000000000000000e+00 1.000000000000000000e+00 1.000000000000000000e+00 4.226497308103742689e-01
4.226497308103742689e-01 1.000000000000000000e+00 1.000000000000000000e+00 4.226497308103742689e-01 1.000000000000000000e+00 1.000000000000000000e+00 4.226497308103742689e-01 1.000000000000000000e+00
4.226497308103742689e-01 1.000000000000000000e+00 1.000000000000000000e+00 4.226497308103742689e-01 1.000000000000000000e+00 4.226497308103742689e-01 1.000000000000000000e+00 1.000000000000000000e+00
4.226497308103742689e-01 1.000000000000000000e+00 1.000000000000000000e+00 4.226497308103742689e-01 4.226497308103742689e-01 1.000000000000000000e+00 1.000000000000000000e+00 1.000000000000000000e+00
5.527864045000421278e-01 1.000000000000000000e+00 1.000000000000000000e+00 1.055728090000841446e-01 1.000000000000000000e+00 1.000000000000000000e+00 1.000000000000000000e+00 1.000000000000000000e+00
4.226497308103742689e-01 1.000000000000000000e+00 4.226497308103742689e-01 1.000000000000000000e+00 1.000000000000000000e+00 1.000000000000000000e+00 1.000000000000000000e+00 4.226497308103742689e-01
4.226497308103742689e-01 1.000000000000000000e+00 4.226497308103742689e-01 1.000000000000000000e+00 1.000000000000000000e+00 1.000000000000000000e+00 4.226497308103742689e-01 1.000000000000000000e+00
4.226497308103742689e-01 1.000000000000000000e+00 4.226497308103742689e-01 1.000000000000000000e+00 1.000000000000000000e+00 4.226497308103742689e-01 1.000000000000000000e+00 1.000000000000000000e+00
4.226497308103742689e-01 1.000000000000000000e+00 4.226497308103742689e-01 1.000000000000000000e+00 4.226497308103742689e-01 1.000000000000000000e+00 1.000000000000000000e+00 1.000000000000000000e+00
4.226497308103742689e-01 1.000000000000000000e+00 4.226497308103742689e-01 4.226497308103742689e-01 1.000000000000000000e+00 1.000000000000000000e+00 1.000000000000000000e+00 1.000000000000000000e+00
5.527864045000421278e-01 1.000000000000000000e+00 1.055728090000841446e-01 1.000000000000000000e+00 1.000000000000000000e+00 1.000000000000000000e+00 1.000000000000000000e+00 1.000000000000000000e+00
4.226497308103742689e-01 4.226497308103742689e-01 1.000000000000000000e+00 1.000000000000000000e+00 1.000000000000000000e+00 1.000000000000000000e+00 1.000000000000000000e+00 4.226497308103742689e-01
4.226497308103742689e-01 4.226497308103742689e-01 1.000000000000000000e+00 1.000000000000000000e+00 1.000000000000000000e+00 1.000000000000000000e+00 4.226497308103742689e-01 1.000000000000000000e+00
4.226497308103742689e-01 4.226497308103742689e-01 1.000000000000000000e+00 1.000000000000000000e+00 1.000000000000000000e+00 4.226497308103742689e-01 1.000000000000000000e+00 1.000000000000000000e+00
4.226497308103742689e-01 4.226497308103742689e-01 1.000000000000000000e+00 1.000000000000000000e+00 4.226497308103742689e-01 1.000000000000000000e+00 1.000000000000000000e+00 1.000000000000000000e+00
4.226497308103742689e-01 4.226497308103742689e-01 1.000000000000000000e+00 4.226497308103742689e-01 1.000000000000000000e+00 1.000000000000000000e+00 1.000000000000000000e+00 1.000000000000000000e+00
4.226497308103742689e-01 4.226497308103742689e-01 4.226497308103742689e-01 1.000000000000000000e+00 1.000000000000000000e+00 1.000000000000000000e+00 1.000000000000000000e+00 1.000000000000000000e+00
5.527864045000421278e-01 1.055728090000841446e-01 1.000000000000000000e+00 1.000000000000000000e+00 1.000000000000000000e+00 1.000000000000000000e+00 1.000000000000000000e+00 1.000000000000000000e+00
1.055728090000841446e-01 1.000000000000000000e+00 1.000000000000000000e+00 1.000000000000000000e+00 1.000000000000000000e+00 1.000000000000000000e+00 1.000000000000000000e+00 5.527864045000421278e-01
1.055728090000841446e-01 1.000000000000000000e+00 1.000000000000000000e+00 1.000000000000000000e+00 1.000000000000000000e+00 1.000000000000000000e+00 5.527864045000421278e-01 1.000000000000000000e+00
1.055728090000841446e-01 1.000000000000000000e+00 1.000000000000000000e+00 1.000000000000000000e+00 1.000000000000000000e+00 5.527864045000421278e-01 1.000000000000000000e+00 1.000000000000000000e+00
1.055728090000841446e-01 1.000000000000000000e+00 1.000000000000000000e+00 1.000000000000000000e+00 5.527864045000421278e-01 1.000000000000000000e+00 1.000000000000000000e+00 1.000000000000000000e+00
1.055728090000841446e-01 1.000000000000000000e+00 1.000000000000000000e+00 5.527864045000421278e-01 1.000000000000000000e+00 1.000000000000000000e+00 1.000000000000000000e+00 1.000000000000000000e+00
1.055728090000841446e-01 1.000000000000000000e+00 5.527864045000421278e-01 1.000000000000000000e+00 1.000000000000000000e+00 1.000000000000000000e+00 1.000000000000000000e+00 1.000000000000000000e+00
1.055728090000841446e-01 5.527864045000421278e-01 1.000000000000000000e+00 1.000000000000000000e+00 1.000000000000000000e+00 1.000000000000000000e+00 1.000000000000000000e+00 1.000000000000000000e+00
0.000000000000000000e+00 1.000000000000000000e+00 1.000000000000000000e+00 1.000000000000000000e+00 1.000000000000000000e+00 1.000000000000000000e+00 1.000000000000000000e+00 1.000000000000000000e+00
#
