# Each line contains three values: hv_raw, hv_norm_1.1, and hv_norm (hv_norm is recommended for showing results). Each line is the hv value of an independent run.
9.976107800361585731e+00 9.987372328378760766e-01 9.994234824826573327e-01
9.964246798469526212e+00 9.975497933629406955e-01 9.982352270974993447e-01
9.977385708188663216e+00 9.988651679156216323e-01 9.995515054668098198e-01
9.975077469632664062e+00 9.986340834251287157e-01 9.993202621941625896e-01
9.976732423582827636e+00 9.987997656893682352e-01 9.994860583015543476e-01
9.965822166844377605e+00 9.977075080832389364e-01 9.983930501863126361e-01
9.976457227948470674e+00 9.987722150522011511e-01 9.994584887338675561e-01
9.977523718522874674e+00 9.988789845324878014e-01 9.995653315773126435e-01
9.976591963556694864e+00 9.987857038267027310e-01 9.994719867767396515e-01
9.980023176884794012e+00 9.991292125951682923e-01 9.998157315760275443e-01
9.976981695552169072e+00 9.988247210328614623e-01 9.995110307922963067e-01
9.977119836761833227e+00 9.988385507520507467e-01 9.995248700141250442e-01
9.978560838714519932e+00 9.989828136581400120e-01 9.996692320457548631e-01
9.976414201186413422e+00 9.987679075176261190e-01 9.994541782395108820e-01
9.975245717117887878e+00 9.986509271713258640e-01 9.993371175139893481e-01
9.977622665137117153e+00 9.988888903664748797e-01 9.995752442177697761e-01
9.975581846597057378e+00 9.986845780733227818e-01 9.993707915381037088e-01
9.975771348790617665e+00 9.987035496903302612e-01 9.993897761908375754e-01
9.977094178729258189e+00 9.988359820516149457e-01 9.995222995486907624e-01
9.976622899053523952e+00 9.987888008694690845e-01 9.994750859475377558e-01
9.975500687938433586e+00 9.986764530434256715e-01 9.993626609253578597e-01
9.974202280016195132e+00 9.985464656413945983e-01 9.992325842067322217e-01
9.976617236290334034e+00 9.987882339537388354e-01 9.994745186422698824e-01
9.974734083521688888e+00 9.985997060405682468e-01 9.992858611883058684e-01
9.976441132256354649e+00 9.987706036655435993e-01 9.994568762399982376e-01
9.974950899556944250e+00 9.986214121258891740e-01 9.993075821882538845e-01
9.977689247853710697e+00 9.988955561563255259e-01 9.995819145878001022e-01
9.977866062004531855e+00 9.989132575363879329e-01 9.995996281307872877e-01
9.975150145093818921e+00 9.986413591773982690e-01 9.993275429457274539e-01
9.976211927054945861e+00 9.987476572646838413e-01 9.994339140722692250e-01
9.975274157260860974e+00 9.986537743969435832e-01 9.993399666959851269e-01
9.975794478025987289e+00 9.987058652255061952e-01 9.993920933170579168e-01
9.975106673958281434e+00 9.986370071552986838e-01 9.993231879332781231e-01
9.976895941503876486e+00 9.988161359451087629e-01 9.995024398055811776e-01
9.976041352315396793e+00 9.987305805302720829e-01 9.994168256041375820e-01
9.977063693252585352e+00 9.988329300616782813e-01 9.995192454616789179e-01
9.974161117311572511e+00 9.985423447230431515e-01 9.992284604568263395e-01
9.976567799617072296e+00 9.987832847042678042e-01 9.994695659920838082e-01
9.965159828821111176e+00 9.976411994929752503e-01 9.983266960342684904e-01
9.974541854864774848e+00 9.985804614693666315e-01 9.992666033938263359e-01
9.964376517020212987e+00 9.975627798651871547e-01 9.982482225229963868e-01
9.975237716725079196e+00 9.986501262286802127e-01 9.993363160210021467e-01
9.974560710450852241e+00 9.985823491570540167e-01 9.992684923785765116e-01
9.975997959874419507e+00 9.987262363865143655e-01 9.994124784754434554e-01
9.975624938691771249e+00 9.986888921485406190e-01 9.993751085775972598e-01
9.975709087382499618e+00 9.986973165192678525e-01 9.993835387368554812e-01
9.977698056042926922e+00 9.988964379698244134e-01 9.995827970072083124e-01
9.974313390418670267e+00 9.985575892276797871e-01 9.992437154362261431e-01
9.977130302366202130e+00 9.988395984942119998e-01 9.995259184762080862e-01
9.975264425681031000e+00 9.986528001401187016e-01 9.993389917697315106e-01
