# Each line contains three values: hv_raw, hv_norm_1.1, and hv_norm (hv_norm is recommended for showing results). Each line is the hv value of an independent run.
6.755432111557075903e-01 5.313330309443865529e-01 9.783757269438212445e-01
6.600004378836723529e-01 5.191082188294315891e-01 9.558654391522599658e-01
6.699686545226455348e-01 5.269484911797891469e-01 9.703022080212775347e-01
6.663100113348066067e-01 5.240708692275045655e-01 9.650034682376207318e-01
6.617043583306898569e-01 5.204483984073642322e-01 9.583331930701080026e-01
6.720609644971115015e-01 5.285941496396029393e-01 9.733324587268658012e-01
6.665624623587379505e-01 5.242694287948207466e-01 9.653690880084626613e-01
6.689043693345720909e-01 5.261114020559108928e-01 9.687608250610735272e-01
6.705668728517549804e-01 5.274190060968563243e-01 9.711685956674686038e-01
6.686906010319062510e-01 5.259432674964931165e-01 9.684512287020775601e-01
6.696708761976034596e-01 5.267142804625747354e-01 9.698709416264413852e-01
6.658503789429116582e-01 5.237093559033043633e-01 9.643377918336231147e-01
6.715401368560093287e-01 5.281845045945835482e-01 9.725781544668851142e-01
6.597227580152716930e-01 5.188898160926811443e-01 9.554632809503598168e-01
6.651993265931789301e-01 5.231972855981419368e-01 9.633948857316455561e-01
6.661257999564493826e-01 5.239259819895297765e-01 9.647366785811852807e-01
6.614684304001239301e-01 5.202628347004658593e-01 9.579915033650499012e-01
6.629936473002164821e-01 5.214624590990108999e-01 9.602004445086107509e-01
6.705603508966233584e-01 5.274138764025146919e-01 9.711591500502414487e-01
6.686025734319829272e-01 5.258740314051496556e-01 9.683237400889971314e-01
6.690371753054920045e-01 5.262158575487514423e-01 9.689531652936382855e-01
6.651023235010182777e-01 5.231209900390754175e-01 9.632543980926000504e-01
6.650106039877984321e-01 5.230488501579381166e-01 9.631215625553027904e-01
6.686438106042641438e-01 5.259064655579528402e-01 9.683834630611793948e-01
6.738726641827653685e-01 5.300191005076497763e-01 9.759563071612583629e-01
6.685319386727611723e-01 5.258184752540588924e-01 9.682214411793791387e-01
6.694491482596034437e-01 5.265398854344002233e-01 9.695498174867236418e-01
6.671639219529333920e-01 5.247424930546594757e-01 9.662401699140769074e-01
6.646304829224427557e-01 5.227498746454232181e-01 9.625710408159046105e-01
6.776922172486263829e-01 5.330232824368337230e-01 9.814880895042696896e-01
6.644433193994935261e-01 5.226026654657754955e-01 9.622999756274771554e-01
6.708131134047994326e-01 5.276126809606251911e-01 9.715252209374876102e-01
6.677524775273584456e-01 5.252054079534762554e-01 9.670925631858409144e-01
6.724734090465117609e-01 5.289185484477183508e-01 9.739297939219795364e-01
6.694765849025372528e-01 5.265614650971193189e-01 9.695895534281585570e-01
6.716794584693038805e-01 5.282940848166114423e-01 9.727799311740372712e-01
6.709129797488504465e-01 5.276912285448472906e-01 9.716698553670024552e-01
6.679232398740652110e-01 5.253397171638251040e-01 9.673398748786162793e-01
6.689026948066019163e-01 5.261100849943119995e-01 9.687583998756922332e-01
6.730511454766110457e-01 5.293729537965138343e-01 9.747665180433178200e-01
6.763813032626283528e-01 5.319922130840737395e-01 9.795895189867487307e-01
6.701544238538532650e-01 5.270946037898740499e-01 9.705712540296790314e-01
6.628484620234764702e-01 5.213482669468807451e-01 9.599901755749196131e-01
6.629226216307421149e-01 5.214065954864195440e-01 9.600975794514891026e-01
6.627737477200663641e-01 5.212895021238016513e-01 9.598819683430136473e-01
6.665317440395814863e-01 5.242452680048765856e-01 9.653245992809631471e-01
6.720946430855245790e-01 5.286206387614887925e-01 9.733812347531464182e-01
6.644647439175638270e-01 5.226195164294663575e-01 9.623310043286694704e-01
6.658290166491237505e-01 5.236925538806967984e-01 9.643068532506149371e-01
6.623289918322906589e-01 5.209396895729836441e-01 9.592378372825139943e-01
