# 10 19
0.5434049418 0.2783693851 0.4245175907 0.8447761323 0.0047188562 0.1215691208 0.6707490847 0.8258527551 0.1367065897 0.5750933294 0.8913219543 0.2092021221 0.1853282196 0.1083768905 0.2196974926 0.9786237847 0.8116831491 0.1719410127 0.8162247487
0.2740737470 0.4317041837 0.9400298196 0.8176493788 0.3361119501 0.1754104537 0.3728320463 0.0056885074 0.2524263534 0.7956625085 0.0152549712 0.5988433769 0.6038045390 0.1051476854 0.3819434449 0.0364760566 0.8904115634 0.9809208570 0.0599419888
0.8905459447 0.5769014994 0.7424796891 0.6301839365 0.5818421924 0.0204391320 0.2100265777 0.5446848782 0.7691151711 0.2506952291 0.2858956904 0.8523950878 0.9750064936 0.8848532935 0.3595078439 0.5988589459 0.3547956117 0.3401902154 0.1780809895
0.2376942086 0.0448622825 0.5054314296 0.3762524543 0.5928054010 0.6299418756 0.1426003144 0.9338412995 0.9463798808 0.6022966577 0.3877662803 0.3631880041 0.2043452769 0.2767650614 0.2465358812 0.1736080017 0.9666096945 0.9570126004 0.5979736843
0.7313007531 0.3403852228 0.0920556034 0.4634980189 0.5086988932 0.0884601730 0.5280352233 0.9921580365 0.3950359318 0.3355964417 0.8054505373 0.7543489946 0.3130664416 0.6340366830 0.5404045753 0.2967937509 0.1107879012 0.3126402979 0.4569791300
0.5434049418 0.2783693851 0.4245175907 0.8447761323 0.0047188562 0.1215691208 0.6707490847 0.8258527551 0.1367065897 0.5750933294 0.8913219543 0.2092021221 0.1853282196 0.1083768905 0.2196974926 0.9786237847 0.8116831491 0.1719410127 0.8162247487
0.2740737470 0.4317041837 0.9400298196 0.8176493788 0.3361119501 0.1754104537 0.3728320463 0.0056885074 0.2524263534 0.7956625085 0.0152549712 0.5988433769 0.6038045390 0.1051476854 0.3819434449 0.0364760566 0.8904115634 0.9809208570 0.0599419888
0.8905459447 0.5769014994 0.7424796891 0.6301839365 0.5818421924 0.0204391320 0.2100265777 0.5446848782 0.7691151711 0.2506952291 0.2858956904 0.8523950878 0.9750064936 0.8848532935 0.3595078439 0.5988589459 0.3547956117 0.3401902154 0.1780809895
0.2376942086 0.0448622825 0.5054314296 0.3762524543 0.5928054010 0.6299418756 0.1426003144 0.9338412995 0.9463798808 0.6022966577 0.3877662803 0.3631880041 0.2043452769 0.2767650614 0.2465358812 0.1736080017 0.9666096945 0.9570126004 0.5979736843
0.7313007531 0.3403852228 0.0920556034 0.4634980189 0.5086988932 0.0884601730 0.5280352233 0.9921580365 0.3950359318 0.3355964417 0.8054505373 0.7543489946 0.3130664416 0.6340366830 0.5404045753 0.2967937509 0.1107879012 0.3126402979 0.4569791300
