# Each line contains three values: hv_raw, hv_norm_1.1, and hv_norm (hv_norm is recommended for showing results). Each line is the hv value of an independent run.
1.593100328614443506e-01 7.370707534679717121e-02 5.445826938558882002e-01
1.569448216189194834e-01 7.261277638688487523e-02 5.364974961639595863e-01
1.353243642192289153e-01 6.260976117203531643e-02 4.625904940647245778e-01
1.498288610830642298e-01 6.932047501728258454e-02 5.121724182741155262e-01
1.552202788147905022e-01 7.181489188382118860e-02 5.306023485133457562e-01
1.790378634103548805e-01 8.283443955970924699e-02 6.120199726718558164e-01
1.402209294797934214e-01 6.487522743375424839e-02 4.793288290731579360e-01
1.806040269157540290e-01 8.355904760494302363e-02 6.173737192342636515e-01
1.304783193245935835e-01 6.036766888338766096e-02 4.460248570118319766e-01
1.647542158393627276e-01 7.622590481251059757e-02 5.631929959109868156e-01
1.823133365860193089e-01 8.434988427978588887e-02 6.232167942003995487e-01
2.082829667087475745e-01 9.636510673504181113e-02 7.119909340122753116e-01
1.602005121319600989e-01 7.411906837390142000e-02 5.476266929766595570e-01
1.635790208989699457e-01 7.568218399052042966e-02 5.591757296098648355e-01
2.073235960080935802e-01 9.592124009809174789e-02 7.087114376040173358e-01
1.779384207097113035e-01 8.232576659969359500e-02 6.082616565325489333e-01
1.600814398071409850e-01 7.406397785223418906e-02 5.472196581763462131e-01
2.069992681628440856e-01 9.577118516120236569e-02 7.076027608403130387e-01
1.612021605064888896e-01 7.458249538402954293e-02 5.510507106628004248e-01
1.751039434646081971e-01 8.101435498222628317e-02 5.985723279567776167e-01
2.026980184360723802e-01 9.378115018347887855e-02 6.928994422791433516e-01
1.894536104430738221e-01 8.765343455672550133e-02 6.476249843319363819e-01
1.805660221007809874e-01 8.354146413131964544e-02 6.172438042242309741e-01
1.812238361909235540e-01 8.384581127026281833e-02 6.194924646684715208e-01
1.943688939242070590e-01 8.992756107209598504e-02 6.644273053856828426e-01
1.696881988825587606e-01 7.850868294890682442e-02 5.800592392281285203e-01
1.652828457783512284e-01 7.647048304806645935e-02 5.650000554605734138e-01
1.951535251929882031e-01 9.029058200058831529e-02 6.671094755061801607e-01
1.784450636356835207e-01 8.256017222781265874e-02 6.099935560525806544e-01
1.702784211337006470e-01 7.878175775251386459e-02 5.820768448850182075e-01
1.574214019329105152e-01 7.283327311569220974e-02 5.381266301649402228e-01
1.730261330219448057e-01 8.005302613116170585e-02 5.914695762476517293e-01
1.714577789134761332e-01 7.932740457194767392e-02 5.861083413651465568e-01
1.823595855553776790e-01 8.437128202987093095e-02 6.233748908868972372e-01
1.688223459968207218e-01 7.810808367250192397e-02 5.770994225202366046e-01
1.860656990386584664e-01 8.608596867483281345e-02 6.360438058837074582e-01
2.067721049806685585e-01 9.566608485154898256e-02 7.068262301003965797e-01
1.443533523933686613e-01 6.678715226099114777e-02 4.934550329412085157e-01
1.639810730927056259e-01 7.586819921382273457e-02 5.605500979581889975e-01
1.643665756409954104e-01 7.604655750590777474e-02 5.618678932813406801e-01
1.623165155110360969e-01 7.509806773567594129e-02 5.548600027669323698e-01
1.548147379329962436e-01 7.162726256887018417e-02 5.292160544933810495e-01
1.904610325071446342e-01 8.811953284726488367e-02 6.510687386997400239e-01
1.445897179260070831e-01 6.689651017028690194e-02 4.942630208386867841e-01
1.625914420647469605e-01 7.522526645533740564e-02 5.557998069998685287e-01
1.520581186456290146e-01 7.035187305405460334e-02 5.197928742298053573e-01
1.661059133302605628e-01 7.685128707512260682e-02 5.678136155144715147e-01
1.183917589482948451e-01 5.477564809010673774e-02 4.047083655708865191e-01
1.851488563779089824e-01 8.566177824650120232e-02 6.329096866002897892e-01
1.745968853183585967e-01 8.077975724648084332e-02 5.968390090548453264e-01
