1|2020/05/03 21:31:39 => Start of the debug
2|2020/05/03 21:31:39 => Reading parameter file input/Param_10D_paper.cfg
3|2020/05/03 21:31:39 => Parser:get_int:nvar=0
4|2020/05/03 21:31:39 => Parser:get_int:nobj=10
5|2020/05/03 21:31:39 => Parser:get_int:ncon=0
6|2020/05/03 21:31:39 => Benchmark:test function INV_DTLZ1
7|2020/05/03 21:31:39 => Benchmark:variables: 14
8|2020/05/03 21:31:39 => Benchmark:objective functions: 10
9|2020/05/03 21:31:39 => Benchmark:constraints: 0
10|2020/05/03 21:31:39 => Benchmark:position parameters: 0
11|2020/05/03 21:31:39 => Benchmark:encoding: 1
12|2020/05/03 21:31:39 => Benchmark:lower bound (0.000000 0.000000 0.000000 0.000000 0.000000 0.000000 0.000000 0.000000 0.000000 0.000000 0.000000 0.000000 0.000000 0.000000)
13|2020/05/03 21:31:39 => Benchmark:upper bound (1.000000 1.000000 1.000000 1.000000 1.000000 1.000000 1.000000 1.000000 1.000000 1.000000 1.000000 1.000000 1.000000 1.000000)
14|2020/05/03 21:31:39 => Parser:get_char:output=./output_paper
15|2020/05/03 21:31:39 => EMO_MPI is not defined
16|2020/05/03 21:31:39 => Parser:get_char:seed=./input/seed.dat
17|2020/05/03 21:31:39 => EMO_Rand:next seed=5
18|2020/05/03 21:31:39 => Parser:get_int:feval=220000
19|2020/05/03 21:31:39 => Parser:get_int:plot_freq=500
20|2020/05/03 21:31:39 => Parser:get_char:plot_pftrue=
21|2020/05/03 21:31:39 => Parser:get_char:plot_term=x11
22|2020/05/03 21:31:39 => Parser:get_int:debug=1
23|2020/05/03 21:31:39 => Parser:get_int:psize=220
24|2020/05/03 21:31:39 => Parser:get_double:pc=1.000000
25|2020/05/03 21:31:39 => Parser:get_double:pm=-1.000000
26|2020/05/03 21:31:39 => Parser:get_double:nc=20.000000
27|2020/05/03 21:31:39 => Parser:get_double:nm=15.000000
28|2020/05/03 21:31:39 => pm updated 0.071429
29|2020/05/03 21:31:39 => Parser:get_char:wfile=./input/weight/weight_10D_3.sld
30|2020/05/03 21:31:39 => Parser:get_int:mombi2_record=5
31|2020/05/03 21:31:39 => Parser:get_double:mombi2_alpha=0.500000
32|2020/05/03 21:31:39 => Parser:get_double:mombi2_epsilon=0.001000
33|2020/05/03 21:31:39 => Parser:get_vector_double:mombi2_refpoint ()
34|2020/05/03 21:31:39 => run MOMBI3
35|2020/05/03 21:39:14 => Program stopped: maximum number of objective function evaluations reached (220000)
36|2020/05/03 21:39:14 => Real execution time: 455s.607858
37|2020/05/03 21:39:14 => Objective function evaluations: 220000
38|2020/05/03 21:39:14 => Fitness value: 0.000000
39|2020/05/03 21:39:14 => Total execution time: 455s.607858
40|2020/05/03 21:39:14 => Number of objective function evaluations: 220000
41|2020/05/03 21:39:14 => Performance indicator of the Pareto front: 5.000000
42|2020/05/03 21:39:14 => EMO_Rand:next seed=13
43|2020/05/03 21:39:14 => run MOMBI3
44|2020/05/03 21:46:47 => Program stopped: maximum number of objective function evaluations reached (220000)
45|2020/05/03 21:46:47 => Real execution time: 453s.149536
46|2020/05/03 21:46:47 => Objective function evaluations: 220000
47|2020/05/03 21:46:47 => Fitness value: 0.000000
48|2020/05/03 21:46:47 => Total execution time: 453s.149536
49|2020/05/03 21:46:47 => Number of objective function evaluations: 220000
50|2020/05/03 21:46:47 => Performance indicator of the Pareto front: 5.000000
51|2020/05/03 21:46:47 => EMO_Rand:next seed=23
52|2020/05/03 21:46:47 => run MOMBI3
53|2020/05/03 21:54:21 => Program stopped: maximum number of objective function evaluations reached (220000)
54|2020/05/03 21:54:21 => Real execution time: 453s.418519
55|2020/05/03 21:54:21 => Objective function evaluations: 220000
56|2020/05/03 21:54:21 => Fitness value: 0.000000
57|2020/05/03 21:54:21 => Total execution time: 453s.418519
58|2020/05/03 21:54:21 => Number of objective function evaluations: 220000
59|2020/05/03 21:54:21 => Performance indicator of the Pareto front: 5.000000
60|2020/05/03 21:54:21 => EMO_Rand:next seed=37
61|2020/05/03 21:54:21 => run MOMBI3
62|2020/05/03 22:01:53 => Program stopped: maximum number of objective function evaluations reached (220000)
63|2020/05/03 22:01:53 => Real execution time: 452s.680038
64|2020/05/03 22:01:53 => Objective function evaluations: 220000
65|2020/05/03 22:01:53 => Fitness value: 0.000000
66|2020/05/03 22:01:53 => Total execution time: 452s.680038
67|2020/05/03 22:01:53 => Number of objective function evaluations: 220000
68|2020/05/03 22:01:53 => Performance indicator of the Pareto front: 5.000000
69|2020/05/03 22:01:53 => EMO_Rand:next seed=47
70|2020/05/03 22:01:53 => run MOMBI3
71|2020/05/03 22:09:22 => Program stopped: maximum number of objective function evaluations reached (220000)
72|2020/05/03 22:09:22 => Real execution time: 448s.893629
73|2020/05/03 22:09:22 => Objective function evaluations: 220000
74|2020/05/03 22:09:22 => Fitness value: 0.000000
75|2020/05/03 22:09:22 => Total execution time: 448s.893629
76|2020/05/03 22:09:22 => Number of objective function evaluations: 220000
77|2020/05/03 22:09:22 => Performance indicator of the Pareto front: 5.000000
78|2020/05/03 22:09:22 => EMO_Rand:next seed=61
79|2020/05/03 22:09:22 => run MOMBI3
80|2020/05/03 22:16:53 => Program stopped: maximum number of objective function evaluations reached (220000)
81|2020/05/03 22:16:53 => Real execution time: 450s.438258
82|2020/05/03 22:16:53 => Objective function evaluations: 220000
83|2020/05/03 22:16:53 => Fitness value: 0.000000
84|2020/05/03 22:16:53 => Total execution time: 450s.438258
85|2020/05/03 22:16:53 => Number of objective function evaluations: 220000
86|2020/05/03 22:16:53 => Performance indicator of the Pareto front: 5.000000
87|2020/05/03 22:16:53 => EMO_Rand:next seed=73
88|2020/05/03 22:16:53 => run MOMBI3
89|2020/05/03 22:24:24 => Program stopped: maximum number of objective function evaluations reached (220000)
90|2020/05/03 22:24:24 => Real execution time: 450s.773815
91|2020/05/03 22:24:24 => Objective function evaluations: 220000
92|2020/05/03 22:24:24 => Fitness value: 0.000000
93|2020/05/03 22:24:24 => Total execution time: 450s.773815
94|2020/05/03 22:24:24 => Number of objective function evaluations: 220000
95|2020/05/03 22:24:24 => Performance indicator of the Pareto front: 5.000000
96|2020/05/03 22:24:24 => EMO_Rand:next seed=89
97|2020/05/03 22:24:24 => run MOMBI3
98|2020/05/03 22:31:54 => Program stopped: maximum number of objective function evaluations reached (220000)
99|2020/05/03 22:31:54 => Real execution time: 450s.054770
100|2020/05/03 22:31:54 => Objective function evaluations: 220000
101|2020/05/03 22:31:54 => Fitness value: 0.000000
102|2020/05/03 22:31:54 => Total execution time: 450s.54770
103|2020/05/03 22:31:54 => Number of objective function evaluations: 220000
104|2020/05/03 22:31:54 => Performance indicator of the Pareto front: 5.000000
105|2020/05/03 22:31:54 => EMO_Rand:next seed=103
106|2020/05/03 22:31:54 => run MOMBI3
107|2020/05/03 22:39:24 => Program stopped: maximum number of objective function evaluations reached (220000)
108|2020/05/03 22:39:24 => Real execution time: 450s.765064
109|2020/05/03 22:39:24 => Objective function evaluations: 220000
110|2020/05/03 22:39:24 => Fitness value: 0.000000
111|2020/05/03 22:39:24 => Total execution time: 450s.765064
112|2020/05/03 22:39:24 => Number of objective function evaluations: 220000
113|2020/05/03 22:39:24 => Performance indicator of the Pareto front: 5.000000
114|2020/05/03 22:39:24 => EMO_Rand:next seed=113
115|2020/05/03 22:39:24 => run MOMBI3
116|2020/05/03 22:46:57 => Program stopped: maximum number of objective function evaluations reached (220000)
117|2020/05/03 22:46:57 => Real execution time: 452s.378618
118|2020/05/03 22:46:57 => Objective function evaluations: 220000
119|2020/05/03 22:46:57 => Fitness value: 0.000000
120|2020/05/03 22:46:57 => Total execution time: 452s.378618
121|2020/05/03 22:46:57 => Number of objective function evaluations: 220000
122|2020/05/03 22:46:57 => Performance indicator of the Pareto front: 5.000000
123|2020/05/03 22:46:57 => EMO_Rand:next seed=137
124|2020/05/03 22:46:57 => run MOMBI3
125|2020/05/03 22:54:30 => Program stopped: maximum number of objective function evaluations reached (220000)
126|2020/05/03 22:54:30 => Real execution time: 453s.117709
127|2020/05/03 22:54:30 => Objective function evaluations: 220000
128|2020/05/03 22:54:30 => Fitness value: 0.000000
129|2020/05/03 22:54:30 => Total execution time: 453s.117709
130|2020/05/03 22:54:30 => Number of objective function evaluations: 220000
131|2020/05/03 22:54:30 => Performance indicator of the Pareto front: 5.000000
132|2020/05/03 22:54:30 => EMO_Rand:next seed=151
133|2020/05/03 22:54:30 => run MOMBI3
134|2020/05/03 23:02:01 => Program stopped: maximum number of objective function evaluations reached (220000)
135|2020/05/03 23:02:01 => Real execution time: 451s.339638
136|2020/05/03 23:02:01 => Objective function evaluations: 220000
137|2020/05/03 23:02:01 => Fitness value: 0.000000
138|2020/05/03 23:02:01 => Total execution time: 451s.339638
139|2020/05/03 23:02:01 => Number of objective function evaluations: 220000
140|2020/05/03 23:02:01 => Performance indicator of the Pareto front: 5.000000
141|2020/05/03 23:02:01 => EMO_Rand:next seed=167
142|2020/05/03 23:02:01 => run MOMBI3
143|2020/05/03 23:09:33 => Program stopped: maximum number of objective function evaluations reached (220000)
144|2020/05/03 23:09:33 => Real execution time: 451s.241037
145|2020/05/03 23:09:33 => Objective function evaluations: 220000
146|2020/05/03 23:09:33 => Fitness value: 0.000000
147|2020/05/03 23:09:33 => Total execution time: 451s.241037
148|2020/05/03 23:09:33 => Number of objective function evaluations: 220000
149|2020/05/03 23:09:33 => Performance indicator of the Pareto front: 5.000000
150|2020/05/03 23:09:33 => EMO_Rand:next seed=181
151|2020/05/03 23:09:33 => run MOMBI3
152|2020/05/03 23:17:05 => Program stopped: maximum number of objective function evaluations reached (220000)
153|2020/05/03 23:17:05 => Real execution time: 452s.297111
154|2020/05/03 23:17:05 => Objective function evaluations: 220000
155|2020/05/03 23:17:05 => Fitness value: 0.000000
156|2020/05/03 23:17:05 => Total execution time: 452s.297111
157|2020/05/03 23:17:05 => Number of objective function evaluations: 220000
158|2020/05/03 23:17:05 => Performance indicator of the Pareto front: 5.000000
159|2020/05/03 23:17:05 => EMO_Rand:next seed=197
160|2020/05/03 23:17:05 => run MOMBI3
161|2020/05/03 23:24:38 => Program stopped: maximum number of objective function evaluations reached (220000)
162|2020/05/03 23:24:38 => Real execution time: 452s.775644
163|2020/05/03 23:24:38 => Objective function evaluations: 220000
164|2020/05/03 23:24:38 => Fitness value: 0.000000
165|2020/05/03 23:24:38 => Total execution time: 452s.775644
166|2020/05/03 23:24:38 => Number of objective function evaluations: 220000
167|2020/05/03 23:24:38 => Performance indicator of the Pareto front: 5.000000
168|2020/05/03 23:24:38 => EMO_Rand:next seed=223
169|2020/05/03 23:24:38 => run MOMBI3
170|2020/05/03 23:32:10 => Program stopped: maximum number of objective function evaluations reached (220000)
171|2020/05/03 23:32:10 => Real execution time: 452s.535717
172|2020/05/03 23:32:10 => Objective function evaluations: 220000
173|2020/05/03 23:32:10 => Fitness value: 0.000000
174|2020/05/03 23:32:10 => Total execution time: 452s.535717
175|2020/05/03 23:32:10 => Number of objective function evaluations: 220000
176|2020/05/03 23:32:10 => Performance indicator of the Pareto front: 5.000000
177|2020/05/03 23:32:10 => EMO_Rand:next seed=233
178|2020/05/03 23:32:10 => run MOMBI3
179|2020/05/03 23:39:37 => Program stopped: maximum number of objective function evaluations reached (220000)
180|2020/05/03 23:39:37 => Real execution time: 446s.436096
181|2020/05/03 23:39:37 => Objective function evaluations: 220000
182|2020/05/03 23:39:37 => Fitness value: 0.000000
183|2020/05/03 23:39:37 => Total execution time: 446s.436096
184|2020/05/03 23:39:37 => Number of objective function evaluations: 220000
185|2020/05/03 23:39:37 => Performance indicator of the Pareto front: 5.000000
186|2020/05/03 23:39:37 => EMO_Rand:next seed=251
187|2020/05/03 23:39:37 => run MOMBI3
188|2020/05/03 23:47:09 => Program stopped: maximum number of objective function evaluations reached (220000)
189|2020/05/03 23:47:09 => Real execution time: 451s.994916
190|2020/05/03 23:47:09 => Objective function evaluations: 220000
191|2020/05/03 23:47:09 => Fitness value: 0.000000
192|2020/05/03 23:47:09 => Total execution time: 451s.994916
193|2020/05/03 23:47:09 => Number of objective function evaluations: 220000
194|2020/05/03 23:47:09 => Performance indicator of the Pareto front: 5.000000
195|2020/05/03 23:47:09 => EMO_Rand:next seed=269
196|2020/05/03 23:47:09 => run MOMBI3
197|2020/05/03 23:54:41 => Program stopped: maximum number of objective function evaluations reached (220000)
198|2020/05/03 23:54:41 => Real execution time: 452s.785847
199|2020/05/03 23:54:41 => Objective function evaluations: 220000
200|2020/05/03 23:54:41 => Fitness value: 0.000000
201|2020/05/03 23:54:41 => Total execution time: 452s.785847
202|2020/05/03 23:54:41 => Number of objective function evaluations: 220000
203|2020/05/03 23:54:41 => Performance indicator of the Pareto front: 5.000000
204|2020/05/03 23:54:41 => EMO_Rand:next seed=281
205|2020/05/03 23:54:41 => run MOMBI3
206|2020/05/04 00:02:19 => Program stopped: maximum number of objective function evaluations reached (220000)
207|2020/05/04 00:02:19 => Real execution time: 457s.753872
208|2020/05/04 00:02:19 => Objective function evaluations: 220000
209|2020/05/04 00:02:19 => Fitness value: 0.000000
210|2020/05/04 00:02:19 => Total execution time: 457s.753872
211|2020/05/04 00:02:19 => Number of objective function evaluations: 220000
212|2020/05/04 00:02:19 => Performance indicator of the Pareto front: 5.000000
213|2020/05/04 00:02:19 => EMO_Rand:next seed=307
214|2020/05/04 00:02:19 => run MOMBI3
215|2020/05/04 00:09:51 => Program stopped: maximum number of objective function evaluations reached (220000)
216|2020/05/04 00:09:51 => Real execution time: 451s.679165
217|2020/05/04 00:09:51 => Objective function evaluations: 220000
218|2020/05/04 00:09:51 => Fitness value: 0.000000
219|2020/05/04 00:09:51 => Total execution time: 451s.679165
220|2020/05/04 00:09:51 => Number of objective function evaluations: 220000
221|2020/05/04 00:09:51 => Performance indicator of the Pareto front: 5.000000
222|2020/05/04 00:09:51 => EMO_Rand:next seed=317
223|2020/05/04 00:09:51 => run MOMBI3
224|2020/05/04 00:17:21 => Program stopped: maximum number of objective function evaluations reached (220000)
225|2020/05/04 00:17:21 => Real execution time: 450s.543151
226|2020/05/04 00:17:21 => Objective function evaluations: 220000
227|2020/05/04 00:17:21 => Fitness value: 0.000000
228|2020/05/04 00:17:21 => Total execution time: 450s.543151
229|2020/05/04 00:17:21 => Number of objective function evaluations: 220000
230|2020/05/04 00:17:21 => Performance indicator of the Pareto front: 5.000000
231|2020/05/04 00:17:21 => EMO_Rand:next seed=347
232|2020/05/04 00:17:21 => run MOMBI3
233|2020/05/04 00:24:52 => Program stopped: maximum number of objective function evaluations reached (220000)
234|2020/05/04 00:24:52 => Real execution time: 450s.198527
235|2020/05/04 00:24:52 => Objective function evaluations: 220000
236|2020/05/04 00:24:52 => Fitness value: 0.000000
237|2020/05/04 00:24:52 => Total execution time: 450s.198527
238|2020/05/04 00:24:52 => Number of objective function evaluations: 220000
239|2020/05/04 00:24:52 => Performance indicator of the Pareto front: 5.000000
240|2020/05/04 00:24:52 => EMO_Rand:next seed=359
241|2020/05/04 00:24:52 => run MOMBI3
242|2020/05/04 00:32:22 => Program stopped: maximum number of objective function evaluations reached (220000)
243|2020/05/04 00:32:22 => Real execution time: 450s.241093
244|2020/05/04 00:32:22 => Objective function evaluations: 220000
245|2020/05/04 00:32:22 => Fitness value: 0.000000
246|2020/05/04 00:32:22 => Total execution time: 450s.241093
247|2020/05/04 00:32:22 => Number of objective function evaluations: 220000
248|2020/05/04 00:32:22 => Performance indicator of the Pareto front: 5.000000
249|2020/05/04 00:32:22 => EMO_Rand:next seed=379
250|2020/05/04 00:32:22 => run MOMBI3
251|2020/05/04 00:39:52 => Program stopped: maximum number of objective function evaluations reached (220000)
252|2020/05/04 00:39:52 => Real execution time: 450s.666931
253|2020/05/04 00:39:52 => Objective function evaluations: 220000
254|2020/05/04 00:39:52 => Fitness value: 0.000000
255|2020/05/04 00:39:52 => Total execution time: 450s.666931
256|2020/05/04 00:39:52 => Number of objective function evaluations: 220000
257|2020/05/04 00:39:52 => Performance indicator of the Pareto front: 5.000000
258|2020/05/04 00:39:52 => EMO_Rand:next seed=397
259|2020/05/04 00:39:52 => run MOMBI3
260|2020/05/04 00:47:23 => Program stopped: maximum number of objective function evaluations reached (220000)
261|2020/05/04 00:47:23 => Real execution time: 450s.623755
262|2020/05/04 00:47:23 => Objective function evaluations: 220000
263|2020/05/04 00:47:23 => Fitness value: 0.000000
264|2020/05/04 00:47:23 => Total execution time: 450s.623755
265|2020/05/04 00:47:23 => Number of objective function evaluations: 220000
266|2020/05/04 00:47:23 => Performance indicator of the Pareto front: 5.000000
267|2020/05/04 00:47:23 => EMO_Rand:next seed=419
268|2020/05/04 00:47:23 => run MOMBI3
269|2020/05/04 00:54:54 => Program stopped: maximum number of objective function evaluations reached (220000)
270|2020/05/04 00:54:54 => Real execution time: 450s.641325
271|2020/05/04 00:54:54 => Objective function evaluations: 220000
272|2020/05/04 00:54:54 => Fitness value: 0.000000
273|2020/05/04 00:54:54 => Total execution time: 450s.641325
274|2020/05/04 00:54:54 => Number of objective function evaluations: 220000
275|2020/05/04 00:54:54 => Performance indicator of the Pareto front: 5.000000
276|2020/05/04 00:54:54 => EMO_Rand:next seed=433
277|2020/05/04 00:54:54 => run MOMBI3
278|2020/05/04 01:02:24 => Program stopped: maximum number of objective function evaluations reached (220000)
279|2020/05/04 01:02:24 => Real execution time: 450s.645695
280|2020/05/04 01:02:24 => Objective function evaluations: 220000
281|2020/05/04 01:02:24 => Fitness value: 0.000000
282|2020/05/04 01:02:24 => Total execution time: 450s.645695
283|2020/05/04 01:02:24 => Number of objective function evaluations: 220000
284|2020/05/04 01:02:24 => Performance indicator of the Pareto front: 5.000000
285|2020/05/04 01:02:24 => EMO_Rand:next seed=449
286|2020/05/04 01:02:24 => run MOMBI3
287|2020/05/04 01:09:54 => Program stopped: maximum number of objective function evaluations reached (220000)
288|2020/05/04 01:09:54 => Real execution time: 449s.530421
289|2020/05/04 01:09:54 => Objective function evaluations: 220000
290|2020/05/04 01:09:54 => Fitness value: 0.000000
291|2020/05/04 01:09:54 => Total execution time: 449s.530421
292|2020/05/04 01:09:54 => Number of objective function evaluations: 220000
293|2020/05/04 01:09:54 => Performance indicator of the Pareto front: 5.000000
294|2020/05/04 01:09:54 => EMO_Rand:next seed=463
295|2020/05/04 01:09:54 => run MOMBI3
296|2020/05/04 01:17:25 => Program stopped: maximum number of objective function evaluations reached (220000)
297|2020/05/04 01:17:25 => Real execution time: 451s.053732
298|2020/05/04 01:17:25 => Objective function evaluations: 220000
299|2020/05/04 01:17:25 => Fitness value: 0.000000
300|2020/05/04 01:17:25 => Total execution time: 451s.53732
301|2020/05/04 01:17:25 => Number of objective function evaluations: 220000
302|2020/05/04 01:17:25 => Performance indicator of the Pareto front: 5.000000
303|2020/05/04 01:17:25 => EMO_Rand:next seed=487
304|2020/05/04 01:17:25 => run MOMBI3
305|2020/05/04 01:24:55 => Program stopped: maximum number of objective function evaluations reached (220000)
306|2020/05/04 01:24:55 => Real execution time: 450s.210996
307|2020/05/04 01:24:55 => Objective function evaluations: 220000
308|2020/05/04 01:24:55 => Fitness value: 0.000000
309|2020/05/04 01:24:55 => Total execution time: 450s.210996
310|2020/05/04 01:24:55 => Number of objective function evaluations: 220000
311|2020/05/04 01:24:55 => Performance indicator of the Pareto front: 5.000000
312|2020/05/04 01:24:55 => EMO_Rand:next seed=503
313|2020/05/04 01:24:55 => run MOMBI3
314|2020/05/04 01:32:21 => Program stopped: maximum number of objective function evaluations reached (220000)
315|2020/05/04 01:32:21 => Real execution time: 446s.118292
316|2020/05/04 01:32:21 => Objective function evaluations: 220000
317|2020/05/04 01:32:21 => Fitness value: 0.000000
318|2020/05/04 01:32:21 => Total execution time: 446s.118292
319|2020/05/04 01:32:21 => Number of objective function evaluations: 220000
320|2020/05/04 01:32:21 => Performance indicator of the Pareto front: 5.000000
321|2020/05/04 01:32:21 => EMO_Rand:next seed=523
322|2020/05/04 01:32:21 => run MOMBI3
323|2020/05/04 01:39:53 => Program stopped: maximum number of objective function evaluations reached (220000)
324|2020/05/04 01:39:53 => Real execution time: 451s.181666
325|2020/05/04 01:39:53 => Objective function evaluations: 220000
326|2020/05/04 01:39:53 => Fitness value: 0.000000
327|2020/05/04 01:39:53 => Total execution time: 451s.181666
328|2020/05/04 01:39:53 => Number of objective function evaluations: 220000
329|2020/05/04 01:39:53 => Performance indicator of the Pareto front: 5.000000
330|2020/05/04 01:39:53 => EMO_Rand:next seed=563
331|2020/05/04 01:39:53 => run MOMBI3
332|2020/05/04 01:47:23 => Program stopped: maximum number of objective function evaluations reached (220000)
333|2020/05/04 01:47:23 => Real execution time: 450s.255669
334|2020/05/04 01:47:23 => Objective function evaluations: 220000
335|2020/05/04 01:47:23 => Fitness value: 0.000000
336|2020/05/04 01:47:23 => Total execution time: 450s.255669
337|2020/05/04 01:47:23 => Number of objective function evaluations: 220000
338|2020/05/04 01:47:23 => Performance indicator of the Pareto front: 5.000000
339|2020/05/04 01:47:23 => EMO_Rand:next seed=593
340|2020/05/04 01:47:23 => run MOMBI3
341|2020/05/04 01:54:55 => Program stopped: maximum number of objective function evaluations reached (220000)
342|2020/05/04 01:54:55 => Real execution time: 451s.856548
343|2020/05/04 01:54:55 => Objective function evaluations: 220000
344|2020/05/04 01:54:55 => Fitness value: 0.000000
345|2020/05/04 01:54:55 => Total execution time: 451s.856548
346|2020/05/04 01:54:55 => Number of objective function evaluations: 220000
347|2020/05/04 01:54:55 => Performance indicator of the Pareto front: 5.000000
348|2020/05/04 01:54:55 => EMO_Rand:next seed=617
349|2020/05/04 01:54:55 => run MOMBI3
350|2020/05/04 02:02:26 => Program stopped: maximum number of objective function evaluations reached (220000)
351|2020/05/04 02:02:26 => Real execution time: 451s.330110
352|2020/05/04 02:02:26 => Objective function evaluations: 220000
353|2020/05/04 02:02:26 => Fitness value: 0.000000
354|2020/05/04 02:02:26 => Total execution time: 451s.330110
355|2020/05/04 02:02:26 => Number of objective function evaluations: 220000
356|2020/05/04 02:02:26 => Performance indicator of the Pareto front: 5.000000
357|2020/05/04 02:02:26 => EMO_Rand:next seed=647
358|2020/05/04 02:02:26 => run MOMBI3
359|2020/05/04 02:09:58 => Program stopped: maximum number of objective function evaluations reached (220000)
360|2020/05/04 02:09:58 => Real execution time: 451s.557773
361|2020/05/04 02:09:58 => Objective function evaluations: 220000
362|2020/05/04 02:09:58 => Fitness value: 0.000000
363|2020/05/04 02:09:58 => Total execution time: 451s.557773
364|2020/05/04 02:09:58 => Number of objective function evaluations: 220000
365|2020/05/04 02:09:58 => Performance indicator of the Pareto front: 5.000000
366|2020/05/04 02:09:58 => EMO_Rand:next seed=677
367|2020/05/04 02:09:58 => run MOMBI3
368|2020/05/04 02:17:27 => Program stopped: maximum number of objective function evaluations reached (220000)
369|2020/05/04 02:17:27 => Real execution time: 449s.470582
370|2020/05/04 02:17:27 => Objective function evaluations: 220000
371|2020/05/04 02:17:27 => Fitness value: 0.000000
372|2020/05/04 02:17:27 => Total execution time: 449s.470582
373|2020/05/04 02:17:27 => Number of objective function evaluations: 220000
374|2020/05/04 02:17:27 => Performance indicator of the Pareto front: 5.000000
375|2020/05/04 02:17:27 => EMO_Rand:next seed=719
376|2020/05/04 02:17:27 => run MOMBI3
377|2020/05/04 02:24:59 => Program stopped: maximum number of objective function evaluations reached (220000)
378|2020/05/04 02:24:59 => Real execution time: 451s.948126
379|2020/05/04 02:24:59 => Objective function evaluations: 220000
380|2020/05/04 02:24:59 => Fitness value: 0.000000
381|2020/05/04 02:24:59 => Total execution time: 451s.948126
382|2020/05/04 02:24:59 => Number of objective function evaluations: 220000
383|2020/05/04 02:24:59 => Performance indicator of the Pareto front: 5.000000
384|2020/05/04 02:24:59 => EMO_Rand:next seed=751
385|2020/05/04 02:24:59 => run MOMBI3
386|2020/05/04 02:32:30 => Program stopped: maximum number of objective function evaluations reached (220000)
387|2020/05/04 02:32:30 => Real execution time: 451s.468406
388|2020/05/04 02:32:30 => Objective function evaluations: 220000
389|2020/05/04 02:32:30 => Fitness value: 0.000000
390|2020/05/04 02:32:30 => Total execution time: 451s.468406
391|2020/05/04 02:32:30 => Number of objective function evaluations: 220000
392|2020/05/04 02:32:30 => Performance indicator of the Pareto front: 5.000000
393|2020/05/04 02:32:30 => EMO_Rand:next seed=787
394|2020/05/04 02:32:30 => run MOMBI3
395|2020/05/04 02:40:00 => Program stopped: maximum number of objective function evaluations reached (220000)
396|2020/05/04 02:40:00 => Real execution time: 449s.649052
397|2020/05/04 02:40:00 => Objective function evaluations: 220000
398|2020/05/04 02:40:00 => Fitness value: 0.000000
399|2020/05/04 02:40:00 => Total execution time: 449s.649052
400|2020/05/04 02:40:00 => Number of objective function evaluations: 220000
401|2020/05/04 02:40:00 => Performance indicator of the Pareto front: 5.000000
402|2020/05/04 02:40:00 => EMO_Rand:next seed=823
403|2020/05/04 02:40:00 => run MOMBI3
404|2020/05/04 02:47:33 => Program stopped: maximum number of objective function evaluations reached (220000)
405|2020/05/04 02:47:33 => Real execution time: 453s.179733
406|2020/05/04 02:47:33 => Objective function evaluations: 220000
407|2020/05/04 02:47:33 => Fitness value: 0.000000
408|2020/05/04 02:47:33 => Total execution time: 453s.179733
409|2020/05/04 02:47:33 => Number of objective function evaluations: 220000
410|2020/05/04 02:47:33 => Performance indicator of the Pareto front: 5.000000
411|2020/05/04 02:47:33 => EMO_Rand:next seed=857
412|2020/05/04 02:47:33 => run MOMBI3
413|2020/05/04 02:55:05 => Program stopped: maximum number of objective function evaluations reached (220000)
414|2020/05/04 02:55:05 => Real execution time: 452s.013990
415|2020/05/04 02:55:05 => Objective function evaluations: 220000
416|2020/05/04 02:55:05 => Fitness value: 0.000000
417|2020/05/04 02:55:05 => Total execution time: 452s.13990
418|2020/05/04 02:55:05 => Number of objective function evaluations: 220000
419|2020/05/04 02:55:05 => Performance indicator of the Pareto front: 5.000000
420|2020/05/04 02:55:05 => EMO_Rand:next seed=883
421|2020/05/04 02:55:05 => run MOMBI3
422|2020/05/04 03:02:37 => Program stopped: maximum number of objective function evaluations reached (220000)
423|2020/05/04 03:02:37 => Real execution time: 451s.303056
424|2020/05/04 03:02:37 => Objective function evaluations: 220000
425|2020/05/04 03:02:37 => Fitness value: 0.000000
426|2020/05/04 03:02:37 => Total execution time: 451s.303056
427|2020/05/04 03:02:37 => Number of objective function evaluations: 220000
428|2020/05/04 03:02:37 => Performance indicator of the Pareto front: 5.000000
429|2020/05/04 03:02:37 => EMO_Rand:next seed=929
430|2020/05/04 03:02:37 => run MOMBI3
431|2020/05/04 03:10:07 => Program stopped: maximum number of objective function evaluations reached (220000)
432|2020/05/04 03:10:07 => Real execution time: 450s.697670
433|2020/05/04 03:10:07 => Objective function evaluations: 220000
434|2020/05/04 03:10:07 => Fitness value: 0.000000
435|2020/05/04 03:10:07 => Total execution time: 450s.697670
436|2020/05/04 03:10:07 => Number of objective function evaluations: 220000
437|2020/05/04 03:10:07 => Performance indicator of the Pareto front: 5.000000
438|2020/05/04 03:10:07 => EMO_Rand:next seed=967
439|2020/05/04 03:10:07 => run MOMBI3
440|2020/05/04 03:17:40 => Program stopped: maximum number of objective function evaluations reached (220000)
441|2020/05/04 03:17:40 => Real execution time: 452s.281105
442|2020/05/04 03:17:40 => Objective function evaluations: 220000
443|2020/05/04 03:17:40 => Fitness value: 0.000000
444|2020/05/04 03:17:40 => Total execution time: 452s.281105
445|2020/05/04 03:17:40 => Number of objective function evaluations: 220000
446|2020/05/04 03:17:40 => Performance indicator of the Pareto front: 5.000000
447|2020/05/04 03:17:40 => EMO_Rand:next seed=997
448|2020/05/04 03:17:40 => run MOMBI3
449|2020/05/04 03:25:10 => Program stopped: maximum number of objective function evaluations reached (220000)
450|2020/05/04 03:25:10 => Real execution time: 450s.880153
451|2020/05/04 03:25:10 => Objective function evaluations: 220000
452|2020/05/04 03:25:10 => Fitness value: 0.000000
453|2020/05/04 03:25:10 => Total execution time: 450s.880153
454|2020/05/04 03:25:10 => Number of objective function evaluations: 220000
455|2020/05/04 03:25:10 => Performance indicator of the Pareto front: 5.000000
456|2020/05/04 03:25:10 => EMO_Rand:next seed=1031
457|2020/05/04 03:25:10 => run MOMBI3
458|2020/05/04 03:32:41 => Program stopped: maximum number of objective function evaluations reached (220000)
459|2020/05/04 03:32:41 => Real execution time: 450s.304747
460|2020/05/04 03:32:41 => Objective function evaluations: 220000
461|2020/05/04 03:32:41 => Fitness value: 0.000000
462|2020/05/04 03:32:41 => Total execution time: 450s.304747
463|2020/05/04 03:32:41 => Number of objective function evaluations: 220000
464|2020/05/04 03:32:41 => Performance indicator of the Pareto front: 5.000000
465|2020/05/04 03:32:41 => EMO_Rand:next seed=1061
466|2020/05/04 03:32:41 => run MOMBI3
467|2020/05/04 03:40:10 => Program stopped: maximum number of objective function evaluations reached (220000)
468|2020/05/04 03:40:10 => Real execution time: 449s.246763
469|2020/05/04 03:40:10 => Objective function evaluations: 220000
470|2020/05/04 03:40:10 => Fitness value: 0.000000
471|2020/05/04 03:40:10 => Total execution time: 449s.246763
472|2020/05/04 03:40:10 => Number of objective function evaluations: 220000
473|2020/05/04 03:40:10 => Performance indicator of the Pareto front: 5.000000
474|2020/05/04 03:40:10 => EMO_Rand:next seed=1093
475|2020/05/04 03:40:10 => run MOMBI3
476|2020/05/04 03:47:22 => Program stopped: maximum number of objective function evaluations reached (220000)
477|2020/05/04 03:47:22 => Real execution time: 431s.487252
478|2020/05/04 03:47:22 => Objective function evaluations: 220000
479|2020/05/04 03:47:22 => Fitness value: 0.000000
480|2020/05/04 03:47:22 => Total execution time: 431s.487252
481|2020/05/04 03:47:22 => Number of objective function evaluations: 220000
482|2020/05/04 03:47:22 => Performance indicator of the Pareto front: 5.000000
483|2020/05/04 03:47:22 => EMO_Rand:next seed=1123
484|2020/05/04 03:47:22 => End of the debug
